0
5879
2499
2172
2510
6606
3681
2776
2129
3230
6551
3428
6140
2504
2616
5954
2422
6007
3869
4170
2532
3218
6143
2105
2041
3033
3532
6614
3178
5960
3405
6153
2727
5859
2610
2271
5389
5510
8627
3588
4967
2006
3521
6820
11771
3432
5176
3719
4345
7467
2425
5581
2940
3225
2986
2067
4805
2068
5486
2090
2551
3939
2341
2450
6321
4036
2136
4957
2703
2585
5389
3493
3965
2303
3795
7053
2597
5701
2913
2372
2213
2645
2068
2218
3410
2757
4805
2250
2476
5970
2269
5039
2736
3672
2677
2243
2457
5527
3813
3203
7585
13527
1
2738
8004
4509
4343
7785
3215
2177
5095
3099
2101
2184
3377
6410
2481
5265
10195
2433
4324
3555
2860
4360
7185
2164
3120
3534
6316
2758
3123
2685
2736
2076
2253
2783
2427
2214
3098
2297
4135
7859
2560
4184
8016
3241
6358
2748
2034
2605
3722
2644
5740
10450
2086
4857
8975
14362
2669
2527
2102
2235
5128
3265
3677
2545
2111
2694
2331
5356
2701
3976
6876
2850
3425
3712
7151
3698
2612
5714
3729
2011
4745
2184
2629
2554
2056
3784
2754
6586
3475
2623
5640
3215
2872
2205
2104
2382
2496
2393
2993
6262
3565
3457
2222
2549
6037
2097
2360
3287
4117
4206
7688
3696
6956
11804
15755
19906
4412
7470
3339
4382
2838
4130
7354
2401
2716
3310
6536
2231
3974
2176
2684
3455
2672
3307
6128
2435
6034
2347
2223
2992
3306
6321
4896
2123
4182
7532
2096
2757
4255
2393
5325
2499
5418
9387
4683
2370
5313
4839
2479
5881
4862
2214
2218
6034
3312
2317
4314
3236
2805
3619
6407
12147
2741
7852
12395
18485
4635
8553
13803
4148
3169
2255
4950
3826
2469
6337
2071
2192
5447
9947
13666
2987
2120
2351
2490
3364
2556
2734
3942
3644
6802
3684
2990
6431
2133
4110
7166
3500
2376
5892
9849
3659
7116
3675
2955
2421
2280
3561
7127
2192
2460
3738
3773
3126
6088
2967
2875
5682
3647
2661
3150
6409
3140
2506
2420
4380
2400
2496
3633
2774
2819
6631
3648
6460
11004
3498
2418
3825
2071
4422
7640
2701
5826
2288
5440
2718
6774
3725
6885
2057
2225
2972
2080
3828
2644
2039
2217
2685
2100
3569
2393
2372
2771
3156
2070
2142
5546
10444
3590
4354
2473
3560
6671
11045
14859
3835
2440
2183
2388
2328
2196
2993
3267
2504
3402
2278
2398
3244
6454
3954
2501
6022
2088
2703
6539
4030
6833
3295
2715
3020
3630
2034
4232
2366
2591
5465
2801
5809
2202
2204
4447
2517
5683
5056
3587
2710
2074
4845
9092
3566
6357
2664
3328
6032
4106
7306
3942
8495
2704
6388
5108
9404
4804
7725
4188
4433
2527
4468
2075
5159
9398
2638
3872
3731
3091
6049
2582
5644
9655
2599
6301
2018
4956
4506
2533
4029
8182
2466
2407
3430
3729
7225
3091
2494
3915
3344
6399
3016
6133
9997
3995
2318
3865
2095
5145
2064
5568
2529
3819
7628
2058
2506
4242
7179
4122
3206
3295
3304
6671
10717
2656
6644
4330
2891
2328
2901
2318
3359
4209
2760
2260
3138
2174
3545
6501
2143
2598
4678
2105
5086
9135
13927
2438
3930
3614
2606
6553
10595
14907
2750
3555
2748
4898
8133
2467
3582
2035
2701
3809
2103
2376
2133
3659
2692
2127
2392
2514
6224
3796
3263
2705
2343
6069
2369
5373
3234
3564
12352
17776
3591
3103
5997
3570
2308
2761
2595
3205
6271
2964
6643
2159
2369
3503
6237
3399
6851
4002
7216
2589
2189
3729
7167
4029
2583
2308
4119
7609
2518
2604
3690
2214
5517
2352
2423
5384
10195
3490
2278
2236
4257
4031
6806
2151
2353
3984
3506
2724
5615
2454
5223
2150
5048
2841
2083
3479
6702
13060
2250
5052
9144
4395
4153
2793
3443
2513
5459
3975
2196
2626
3821
6821
11200
16872
3532
6930
2225
3712
2478
6010
4178
7059
3722
4016
3494
2697
2470
6267
2192
2862
2588
5536
2492
2608
5807
2067
3030
3544
2829
3707
6833
2142
2058
2583
4755
3618
2207
2532
5640
9823
2890
2019
3229
3093
2435
2896
6426
2036
3729
3895
2599
4291
7778
2738
2867
2165
3739
3092
4291
6974
11425
2498
2449
4194
2012
4734
2950
2123
2442
4236
7091
11256
15828
2446
2624
3037
3687
2987
6689
3974
3057
2532
3747
2753
2401
2258
3006
3776
3529
2061
5079
2442
6072
9907
14122
2339
2067
2162
3018
2218
2411
5534
3692
2053
2706
1985
2805
5203
3455
2937
3138
5893
10074
2499
2250
2417
3371
2514
5079
7798
11709
3880
7055
2857
4079
2114
2856
2759
2266
2368
5397
2231
2221
2382
5712
2502
3572
6582
3957
3645
3005
3559
6515
3386
2104
2499
3239
5942
9925
14106
19159
2520
2874
3987
2041
4129
7432
2251
4786
3541
4114
2028
2648
4335
8726
13792
1
5519
9918
4894
5485
8695
3827
2446
2572
2078
4079
7352
3527
2072
3705
2588
5754
2370
2041
2581
3722
6896
11262
16119
2346
2920
6700
3517
3398
7119
2020
2785
6120
2135
2901
4114
2188
2354
2230
2427
4347
3154
2733
3476
3991
6864
11302
2078
3617
6959
3237
2043
3393
6367
3529
6298
11505
15777
3979
2141
2599
4741
2040
2170
4721
7458
3665
4282
7032
11272
3367
2114
4061
3818
3681
2952
6803
2461
5738
10435
14578
18820
5132
4172
2576
3187
2242
2556
2874
2402
6249
2340
5580
3100
2511
2186
6122
3718
3947
3866
3343
4659
2354
3903
2550
5322
2525
2742
5727
3686
7205
11123
15096
19217
2363
5418
4793
3299
3744
2898
6002
10258
3052
6394
2206
4079
3242
2255
4611
2499
5873
3076
3910
6970
2826
3621
2697
2649
2045
2127
5441
3255
3832
7184
3609
2184
3507
2409
5552
3208
6053
2200
2969
2099
5195
2369
2231
5375
2028
3239
2950
2457
3681
2205
3534
2338
5197
2563
3160
6494
2425
2291
3705
7669
11904
3786
4407
7583
3746
7104
2140
3897
6663
9807
4913
9097
13632
19173
4349
4059
4019
2210
2527
2172
6012
3327
3830
7072
3275
2387
5640
10445
4161
2894
2192
2113
3259
6188
2598
4405
2276
2896
4182
7686
11787
15914
3486
2474
4650
2942
2148
2375
2581
2780
6335
2119
5394
2484
5632
2947
4956
3669
2957
2029
2821
2637
5819
9574
2186
2069
2073
4207
3267
3339
2316
3990
7169
2631
2441
5738
4829
7820
3625
4282
2377
2626
2031
4797
8884
2379
3785
4337
2519
5613
2785
2272
5443
2969
6941
2216
2562
6223
3597
3054
2159
2200
3060
2085
3983
7283
2173
3438
6896
2009
3128
4579
2192
2519
2088
2450
2505
2185
2559
5915
10821
4017
2173
2206
4024
7266
3301
2240
5533
3561
2447
2684
2091
3734
2595
2191
5431
4718
2523
2048
3933
2151
2789
2073
3935
2649
3309
2833
3060
6367
2420
5631
2706
2237
2445
6024
4037
3013
2074
2241
3174
2093
2524
4797
2203
2182
2200
4085
2572
5978
9984
2266
5690
3562
4321
8163
11964
2094
2675
3697
2431
3746
8179
3909
8216
4295
9222
3
4470
10267
4054
4982
3736
4303
7636
11498
2568
2049
2257
3996
2087
2876
3353
3866
2574
2600
5356
4317
7340
2461
4123
2207
3746
2998
2249
2084
2973
2754
3906
2325
3249
7029
12119
2587
2477
6041
3879
6811
3470
6279
4013
7530
2541
2441
3125
3386
3900
3855
6709
2850
5625
2505
6415
2418
3896
2287
3486
6272
3027
6336
3806
7373
2070
2213
2797
3903
2449
5981
2535
5698
3136
2426
3790
7411
3934
2312
3662
3587
2800
2110
4960
9134
2038
4142
4574
2183
2194
2467
2501
5825
2602
2190
2157
4568
2471
2674
2710
2463
2237
6085
10056
14092
2675
6181
2590
3028
3648
2644
5291
3152
2858
3814
2551
2456
4067
2303
5031
2065
2543
5703
3584
6762
11826
2522
3702
7075
4145
2601
2230
4348
7343
2011
5338
3244
6513
10835
4566
7587
2590
3443
4062
2043
5670
3855
2484
2317
3834
3018
2472
3750
2187
2083
2857
7038
3187
6005
4355
2064
2617
2457
2360
2508
3534
6805
10931
2794
6161
3320
3630
3775
2708
2904
2551
2086
2113
2049
2713
2198
3190
2401
6117
3220
2887
3034
3725
2198
2640
2023
2160
5790
10083
2220
5525
4086
7272
2222
3465
2124
4673
3617
6844
2115
2159
2755
3527
6302
10417
15396
2177
4990
9144
2501
4320
4290
3654
2847
6324
2189
4650
7581
3620
5011
2465
4489
8321
2220
2273
2299
2444
5679
11013
2522
5699
3489
3738
5147
2114
4980
2480
2086
2430
4610
4060
3948
7366
4073
2903
6475
4154
3061
6230
10293
2806
2299
5626
2636
3387
6480
10771
3323
2128
2711
6489
3705
2459
2081
3465
3523
2229
2337
3412
2288
2732
2778
2546
2525
6331
2070
2303
5652
11414
4080
3597
3667
2255
2321
5437
2115
3034
6082
2743
2717
3703
6611
4137
2200
4003
7682
3773
6683
2387
2243
4007
7630
4032
2468
3437
4231
7818
2082
5269
3483
2395
3726
2619
5701
3936
3661
6867
4679
7927
2089
4251
7456
2242
5626
10434
2128
2914
2556
3894
2780
6252
2092
2557
3457
3718
5035
2130
5239
10360
2289
2447
2908
3474
3902
2934
6950
2761
6973
2322
5658
4080
7257
4309
7604
4371
8042
3661
6459
2594
4116
2582
2145
2410
2416
6193
2683
6177
3615
3310
3982
4072
2503
6149
2541
2597
2092
2071
4583
7939
12305
4281
7630
2215
4629
7799
3999
7182
3560
3558
2438
4067
6884
11453
15765
2495
2954
3817
2060
3256
3997
4213
6947
11721
2743
2075
4547
2099
2490
5641
2854
2566
2507
2148
4894
9223
13606
2378
3582
4085
3258
6420
12044
16468
2775
2544
3772
4134
7188
2906
4289
4047
7081
3662
6777
10904
16155
4036
2987
3612
2570
6113
2225
2559
2751
4030
2151
2723
2499
5664
2319
4182
2519
5824
2818
4339
1975
3999
2447
2122
2529
2236
2377
2259
6407
2511
5404
9920
2413
4478
3464
2546
2953
6527
3820
7211
4194
7394
2872
5815
4262
7502
2023
4811
3756
4755
7880
4760
7520
2853
2765
2352
2052
4187
2520
2786
3108
2258
3191
6429
2543
2762
2063
2226
4760
2000
2801
2962
2472
2380
2496
2865
6020
2843
2468
2591
2935
3831
3285
2472
6071
9783
2562
6435
2764
2982
6357
2315
3383
5675
2027
2522
2587
2077
5225
9157
2006
2009
2726
2488
2187
3601
2087
4064
4334
3981
4930
2233
5628
2892
6070
2534
5836
3164
6116
4760
7745
3655
7208
3893
6999
4310
3729
6929
2243
2154
2154
5846
3969
2927
2319
2178
2355
6853
2537
5232
2016
2530
3837
6576
10576
2762
3409
6564
3690
2093
3303
6351
3798
2895
3305
6143
4083
7339
2136
5341
2638
2149
4137
7440
3185
4765
2065
2223
2664
2876
2295
3223
2157
5228
3066
5943
2663
6095
3999
2592
2079
4841
3223
6755
10616
2173
3450
4473
2510
3903
2461
3461
2097
2213
3041
6216
3990
2297
2562
3377
7188
10958
2513
6150
3987
4343
3629
3512
6845
10960
14839
2818
3467
3858
4805
7993
12448
4601
4431
7672
3621
2446
5461
3625
2530
5758
3755
2443
5665
2378
2068
5260
10367
3979
2845
2458
2182
2968
6747
2252
2577
2159
2853
4562
3671
4162
7165
11034
2809
6449
2053
5752
4359
2481
2698
2244
2116
4014
7520
3731
2486
6332
4158
3856
7711
4052
2408
2509
4682
8428
2908
2547
2497
2921
2058
3779
3469
6513
3994
7492
2455
2142
4971
8205
2217
6277
3922
6715
4140
2897
2813
3255
2485
2606
2123
5415
9717
2267
2219
2231
3331
4016
2967
2578
2392
6270
3584
2443
6195
2114
2191
5705
2574
3704
3498
6645
2474
3089
2561
5392
3915
2496
5597
10326
4067
2908
3193
2802
2386
3718
3197
2024
4444
8566
2072
5187
9219
2523
2080
2087
3502
6726
5223
8366
12526
17413
4431
2952
4897
2010
2098
2953
2583
2651
6806
2151
2747
3693
3933
2795
3311
2505
5402
9939
2072
2799
6071
3813
7109
4628
7856
3658
8019
2394
4069
3468
2101
3278
2322
5159
4432
2688
2739
3753
6684
2530
6132
2146
4462
2090
3957
