0
10628
2253
2621
6072
10704
14838
3629
7679
4859
8329
2226
5072
2090
3280
3438
3559
2421
6312
2035
2417
3517
3351
2596
6019
2293
2276
5548
3145
6118
2874
2644
6317
4383
7300
2401
2615
2027
5285
2585
6431
3605
2409
2216
5013
2561
3825
2231
3825
3884
3855
6959
2056
3870
6713
2138
3458
2495
4045
7089
2659
2427
2379
2371
5115
8791
4952
2157
5108
2580
2058
3883
6914
2067
2362
3601
7104
3698
3057
2474
2376
3554
6788
2173
3656
6731
10822
4001
8067
3973
7060
11893
2656
2592
4028
2078
2180
2084
3292
6989
2102
2089
5395
3835
2144
3882
7318
3278
2437
3377
2399
6031
2046
2699
5478
2060
5386
9674
4179
4015
3999
3176
2561
4454
7693
2064
4885
2177
3236
6203
10933
4230
2755
3560
6545
10639
2641
2522
2580
2513
5259
2337
3697
2486
5392
2475
2424
4377
7705
3708
6530
3742
2542
5750
5623
2517
3832
3985
2571
2502
2183
2865
2103
3908
7279
2081
2337
5544
2530
4045
2635
2179
2466
2849
3631
6884
2744
5728
2361
2892
2058
2497
3228
3096
2101
4921
4028
2151
6109
10446
2329
6002
11032
3779
4390
3460
2142
5197
2591
5686
10002
4062
3628
2394
2420
2621
2368
2462
6178
4104
2330
2166
2436
2477
2414
5782
3947
4187
3986
2666
2357
2234
5451
2099
5272
9086
2444
5195
2490
5647
3846
2382
2401
3604
6398
4656
2534
2737
3978
6849
2275
5821
3578
3748
1985
2114
2469
3354
6390
10441
14686
2524
3547
2428
3620
2453
5887
3781
6797
10704
2142
2447
4718
3283
3741
1980
3891
3312
6349
10293
14509
19334
3506
2438
2343
3270
4000
6821
2118
5384
4555
7310
2762
2501
5721
2694
2767
2142
5096
3864
3630
3958
3313
2178
5351
9659
2283
5528
4535
7389
3798
4749
8482
3728
7733
4178
3424
3608
2487
2000
2098
5342
9843
14121
3957
7341
2057
2175
4301
2357
3882
3868
6563
2086
6019
9800
2531
5863
10351
3542
4257
3844
6963
4738
2523
2409
5848
2037
3944
7412
2160
5047
3770
2046
3480
3712
3444
3754
2088
4787
8840
12937
17411
2509
2478
2156
3605
3977
2493
5685
4270
2206
2497
6008
2380
2474
4407
7656
2622
2431
3418
6253
2915
3814
6570
2401
4083
7142
4150
7145
2529
2206
6138
10598
3599
2099
3502
6919
2373
2483
3339
2075
4151
7136
3403
2367
3106
2077
3587
2736
3869
3548
7156
2371
2455
5310
2145
4950
2381
3261
3954
2810
5575
3768
7274
11926
15965
20112
24665
2078
4284
7287
3752
2451
3405
3988
3995
6816
3893
2244
2153
1976
2845
5679
3808
2217
2621
5498
4124
2757
5746
3926
8044
2411
6709
11643
3763
2801
3718
4188
3127
6276
4121
7148
10839
15190
2433
3516
6711
4255
4240
4309
2303
5316
4397
7162
2303
5573
10180
3429
4010
3255
6391
2668
2136
2549
6170
2507
3593
4444
3699
2526
6207
9979
13998
2506
2098
2520
4410
3364
6482
2188
2172
4994
2302
3535
2797
2931
2093
3756
6600
11042
3721
2852
2569
5587
4203
2101
5556
2859
5925
4002
2985
2265
2213
4469
7634
3644
7244
14974
2799
3686
6791
3123
6216
3873
3844
6835
3496
2758
3288
6302
2954
3625
3769
2067
2685
3648
7004
10780
15070
19756
4076
7063
2639
3548
3931
7569
2413
3288
3844
4032
2098
2427
5562
10347
14368
18508
22937
2427
2118
2564
1987
2227
3977
3700
2470
5708
3785
2450
2305
2907
3668
3558
2189
2587
3388
6465
10176
14508
2481
2510
5598
3833
3922
2167
4818
2481
2716
5886
2395
2491
3326
3168
2100
4803
8997
4983
8384
2905
2302
4177
2553
5710
2046
2135
2057
2371
4446
2236
3656
6753
2522
5537
2451
2507
5281
2418
2244
2349
3701
2087
3757
2996
3164
6041
2833
5794
2518
2504
3747
6842
3918
7059
3501
4370
3476
2074
2357
3367
2109
2412
2120
2636
2184
5022
9906
14040
2469
5743
2114
5571
9375
2154
4266
2478
5279
4627
3790
2326
3841
4098
4686
7372
3677
3419
6691
2669
2901
2399
4229
2027
2469
2209
2431
5546
2494
2751
5789
2371
3944
2340
3608
7408
4365
7275
11291
2663
5413
9534
13952
2369
2094
5814
3304
3849
3191
2539
3081
2080
5288
4057
7044
11159
2641
3504
3736
2378
2347
2502
2548
5820
2328
2098
2338
3986
2301
3515
3838
2920
2379
5660
4520
3274
2562
6390
2073
4073
7713
12669
2461
3768
3953
7127
3113
5900
2161
3490
3661
2747
2136
2475
5743
2145
5330
2452
2543
5566
2398
5382
3659
6831
10563
3564
2110
5199
2376
2371
4296
4063
6817
2837
3791
2479
5354
2703
3536
3771
2555
4837
2013
2155
2567
2051
2476
4558
8595
13527
3168
6167
3124
3955
3477
6504
11300
3195
6800
10669
4075
6865
3918
2091
3852
3196
2279
2464
3535
6866
3546
1982
2383
2605
2065
5205
8909
13182
2382
2531
2786
3794
3607
3310
4062
3089
2400
5276
2417
2105
5163
2456
5668
9586
2521
2173
5305
3957
3848
6685
2797
3985
7293
2361
4060
2105
5650
4488
7257
3842
6747
2494
2448
3163
2596
3621
2388
2147
5215
4485
2041
5285
3333
6181
3929
3003
6076
2530
3791
2053
5763
4439
3443
6766
2413
3872
7448
2244
2483
2132
2071
2149
4054
7239
3966
2128
2032
5000
3740
2361
2101
4793
3133
2320
2353
2816
5975
3322
2446
2012
5153
2568
3525
6637
2491
5767
3718
3225
2011
4132
3594
2346
2746
3181
6502
2874
3559
2524
2233
2709
5430
3828
2732
2149
3842
3400
2077
3787
3851
6977
11119
15914
20095
2371
5660
2013
3521
4310
2494
5216
4180
2530
5711
2468
3689
4195
7474
11137
3957
2321
2141
2250
3707
2563
3158
6300
2444
3133
3002
2507
4672
8966
2396
2093
5117
2194
6435
2379
2281
2101
3518
4280
2385
4040
2000
4729
3315
3579
2564
2171
5665
2352
2344
5671
9459
3737
3465
6486
2421
4284
7033
11350
2569
3896
6943
2659
2464
3882
7154
11301
2489
4477
7681
3689
6748
3853
3881
7360
2530
2285
4119
6843
2631
3577
6491
4154
7342
2403
5178
2913
2241
3901
2517
3702
2486
2436
2236
2323
3131
6323
2525
2072
2221
5104
9435
2342
5441
2370
3343
6266
4164
3664
2634
3166
3542
6734
2254
2545
4072
7051
2335
2360
3510
2624
3388
6188
10392
2468
3168
6817
11041
2061
3749
2518
2332
5563
4253
2552
5795
2335
2189
2461
4091
7057
3934
2909
5815
3621
2874
3801
2533
2548
2528
2206
3476
2423
2151
3592
2143
5401
2477
2753
5731
2085
2236
2379
5651
3128
2304
3220
2686
2779
5875
9991
3692
6496
10575
15044
19172
2477
3031
2496
3549
3557
3423
4140
10067
14502
4
4601
2202
2351
3505
5619
3539
6937
2419
5585
2295
5258
2362
2635
5483
4382
2075
3728
2160
3594
3716
7018
3786
4169
7481
11650
2397
2309
2491
4357
3945
7684
2706
2296
5612
9918
2389
3701
2963
3540
2381
5740
9394
2465
5336
3661
6987
2630
3590
2412
5211
3201
6217
3738
2616
5546
4595
2421
2131
2958
3340
6433
2541
3376
2528
5526
2509
2168
2778
2211
4192
2345
5212
3685
6706
2110
3880
7260
4113
2054
5393
3887
2458
3693
2536
2562
2293
2573
2100
5514
9857
3732
7619
2307
5558
9732
3613
2493
3020
3601
3743
3382
6332
3944
2315
2278
5601
3232
6488
2530
3489
6471
2387
3488
6257
2472
5590
9757
2524
5610
2063
4873
2467
3624
5331
8342
3684
3442
7190
4067
7036
2761
2398
2285
2702
2057
3985
2667
2100
2295
3764
2368
5621
2071
2088
5427
2601
3748
3910
2414
2980
2198
4468
8259
2901
6501
11286
2175
5319
3960
2586
2143
2551
2137
2158
3524
6948
3602
2443
5416
2060
2305
5473
4066
7294
2081
3874
2297
3281
4722
2450
2556
5882
3432
6661
4437
7496
12146
3909
7302
11545
2525
5935
3718
7083
2691
4165
2392
6040
2073
3573
2430
2676
2509
3380
6361
2091
5643
2532
2489
2587
2204
3577
1989
2055
3678
1970
2517
4458
2089
5352
9457
2054
5048
3855
7429
11379
2519
2532
2612
2534
3864
6758
2340
2571
3778
2029
2044
2600
3881
3211
6461
4051
2364
2500
2634
3651
2338
3221
6145
2332
2302
5406
9387
2845
3829
4002
7156
2504
2127
2774
3719
6601
11135
2120
3639
2911
5728
3498
3823
6816
4024
7050
2143
5355
2496
3474
6688
4083
7151
4105
7815
3996
1994
5653
2319
2430
2506
2389
5652
4351
2560
3926
3431
3780
2546
2031
2143
2963
6121
2386
5479
3651
6946
11196
16260
3739
6625
3418
3973
3588
2554
4709
8758
14205
18837
2005
2647
3500
3586
2026
2645
2093
2132
3936
6974
2515
2447
3558
7337
12082
3631
6766
2698
5732
2384
4086
2513
4056
1988
3645
6831
2472
5430
2146
2063
2542
2136
2652
3494
2264
5589
2564
3598
2406
5578
4347
7307
3867
7118
2245
2186
2556
1983
3364
2544
3609
3734
3561
2142
2021
2070
2144
5035
9364
13847
18616
3893
2020
3691
4601
2460
5665
2531
5306
4285
7203
11599
4021
2323
1990
2102
2769
3424
6442
11031
3760
7094
2607
3875
7428
4103
6979
11158
2477
3673
6512
4214
6980
3766
4251
7532
3566
6788
3526
6827
2757
2386
2156
4447
10442
2619
3792
2275
6200
3861
2149
5652
2501
3698
3521
6264
10322
2566
3717
2521
2085
2226
3781
2248
5213
9466
2536
5774
3546
7190
2445
5574
4018
2406
2403
2694
3357
2070
2706
5934
3568
2137
5295
2711
2053
2486
2023
2098
2186
3641
3911
2088
2853
2502
5757
2703
2124
4927
2495
2235
3705
6469
3359
3695
7359
4027
7186
3075
3220
2316
3058
2740
4284
2218
2067
2470
2386
2679
5513
2196
2612
2213
3726
4152
3479
2016
2360
5095
2350
2817
5865
2123
3788
2440
2643
6163
10900
3641
2510
3887
3594
2710
5488
2429
4200
7005
2471
3418
3522
2308
6205
1987
3421
2216
5060
2461
3849
2576
5802
10426
15088
4338
2581
5416
9581
4284
4063
7021
2804
2254
3515
2133
4931
2170
2652
3871
2188
3530
2102
2360
2024
4848
2197
6228
3576
6870
2510
4005
2573
2175
2502
3977
2287
5160
2147
2114
2478
6307
2030
2156
5466
2703
2111
2537
2330
5561
2617
2383
2346
2162
2096
3766
3247
2235
3686
2669
3767
6557
2860
2125
4982
2320
2717
2182
4578
7396
3888
2417
3996
2230
6308
2508
2384
3780
6999
2441
2095
3804
2755
5675
9471
2056
2436
5301
2315
3253
2407
3892
8009
3666
4558
7310
2005
4715
3466
4520
7419
3945
2766
2076
2164
5315
5172
9263
15249
4524
7614
12440
4054
7091
2720
1994
4003
3425
6285
4796
2228
2121
4254
2748
2545
2245
2120
2860
2470
5311
2617
2678
2333
5301
2679
3498
6565
2405
2455
3441
2300
5106
4928
7940
3598
3310
2452
3873
3613
2399
5715
4379
2026
3932
7511
4067
7185
2658
5517
3928
3458
3081
2662
5801
2245
5576
2122
4922
8742
13422
3114
6697
3853
3664
2411
3638
6477
4126
3218
4056
4109
3854
2973
6052
10424
2742
6250
2533
5297
9563
2032
2096
3688
2620
2547
3957
2104
5047
9833
14252
2352
2094
3258
3838
2050
2384
2796
2077
2157
5425
2293
3540
2879
2078
2428
4482
7465
11459
3307
2058
4831
2346
2263
5463
3985
2149
2587
3970
2008
3523
4383
7179
2434
3664
2530
5700
10955
2085
3938
7499
2602
2307
3419
2389
5514
4140
7184
2446
3627
3796
2942
3834
3801
7540
11200
15145
2850
2606
5484
9760
3370
3800
6886
2239
3974
3269
2498
3548
2065
5174
2163
3634
3672
6702
2429
5170
8387
3054
6790
2690
4140
7741
3027
2230
4540
7571
2201
3739
2539
5336
3755
2187
2541
2716
3601
2117
5449
3821
7022
3026
6348
2772
4515
7519
3469
6987
2677
3972
7611
3529
6255
4805
7697
11600
4445
2399
2185
5227
3801
7035
2451
2412
3399
3953
6817
2393
2039
2428
2156
2240
4159
3910
2730
2257
2341
5148
9217
3535
6756
3422
3522
3640
2376
2162
5515
10345
14717
19017
