11335
15345
3125
3003
5831
3941
6707
2092
4817
2507
2067
2131
2597
5338
2427
5272
1072
3530
6484
2227
5144
1280
3337
6365
3743
2396
5370
1342
2038
5636
2526
2080
2067
4857
1216
5509
10133
2682
3925
2124
2324
2107
3534
2166
2064
4791
2038
3329
6063
3322
6326
3155
3678
6508
3451
6207
4268
7022
2362
2465
3215
2404
5088
2118
2461
2207
4976
2085
3395
2164
4967
3081
2026
2093
4901
2109
3651
3356
6052
2524
2189
5016
3911
2073
4861
4177
2224
2335
2713
6222
2338
3157
3926
2661
6047
3726
2480
2691
7416
1693
2886
2505
3508
4459
7495
1160
2238
2508
2120
3608
6396
2647
5455
2557
6110
3569
2041
5130
2075
2210
3271
5980
3293
3565
2050
2449
2387
3735
6748
2297
5144
2219
2115
5334
2097
4894
3651
6540
3151
2335
5378
2064
4837
3689
6439
1204
3406
3255
6049
3469
2057
2051
4947
3164
2065
2754
2071
3598
6476
1072
3463
2268
2137
2200
2212
5207
1326
2243
3139
5929
2060
2121
2260
2073
3389
3109
5837
2485
5365
3703
4218
7500
3988
7025
3146
5972
1206
3200
2082
3558
6378
3
2987
2136
2072
3288
2143
3705
7550
2355
2046
4938
2413
3138
2165
2745
3888
3686
7095
2281
2096
2280
2867
2470
3284
6200
1113
4038
2174
4972
3863
2265
3802
7398
4485
3957
6894
1475
2023
5378
2121
4020
7654
2626
5428
3216
6280
3994
2075
4920
2428
5813
2140
4859
3008
2238
3571
3113
2128
2216
8063
2987
3191
2417
2052
3839
6573
2661
2043
2116
4045
6810
1136
2134
2040
3620
7148
1101
2116
2102
3366
6107
1096
2143
2270
3227
5983
1342
4811
2446
2422
3397
6453
3051
2291
5243
2703
3749
2042
5175
2344
2030
2595
2074
2053
2902
5789
2471
5300
2293
2501
4582
3718
6448
2872
2186
2536
5399
2286
2369
2579
6221
3993
3959
2058
4080
2392
2367
5268
2320
2008
1986
4247
2316
5373
3104
5867
2520
2378
5444
3580
7393
1143
3687
2611
2334
4024
8448
2205
5105
4023
3551
2281
5494
2428
5844
1453
3483
6510
2931
2791
5737
2739
2346
5027
2493
6201
3535
6614
3712
6613
1402
4593
2159
4157
2237
2401
5542
3481
2542
5742
2375
5406
2231
2051
5233
2933
2146
3559
2441
3478
6858
2758
5507
2065
5172
2415
2372
3845
3615
2439
5757
2142
5382
2149
5000
4500
3598
6850
2399
2115

3311
2108
5399
2745
5803
2801
2465
5272
2678
5512
1316
2208
2648
6079
5293
9208
2920
6138
3962
7298
3548
2109
3882
2381
2073
2156
4890
2626
5441
3933
7961
2308
5396
2584
3493
2495
4373
3567
6440
1594
2378
4367
2305
2105
2546
2286
2091
2359
4202
2732
2725
2453
5515
2749
5782
2241
5640
2497
5235
3631
3465
2065
2344
3644
2169
5027
2429
5226
3960
6927
2369
2488
3642
6313
4160
2017
5089
2157
5861
2498
2394
2876
2158
2552
3671
2104
5385
3296
2134
2645
2526
5238
3657
2653
2408
2080
2403
2467
3663
2286
5346
3952
3318
6075
2209
3309
2368
2643
2113
2545
5755
2188
2100
2952
1976
4641
2510
3580
3709
2915
3517
4285
7388
1505
4673
2913
6242
2384
2345
5438
3805
7555
2439
5218
4296
7254
1094
3401
6153
3716
6848
1520
2249
4208
7334
2760
5542
2203
2428
5342
3268
6444
2
2230
3975
2671
6317
2411
6111
2645
6095
2989
3375
3485
6558
2670
5823
1416
3922
3431
2232
5117
2299
5103
3981
2458
5544
1528
2160
2514
3612
2031
3676
2266
5485
2441
3931
6739
2767
6034
2668
5490
2767
6032
2968
5928
2980
2364
5417
3321
2354
5187
2110
4817
4209
2282
5822
1232
4263
2485
2785
3507
2567
3090
2470
4746
7800
2528
5815
1670
3311
2178
5140
2566
2399
2575
5710
3671
4075
7734
2444
5790
2336
5731
2870
2634
5471
2149
2521
3389
2423
3784
1981
2386
5198
2477
2464
2674
6114
2271
2136
4727
2329
2505
3824
7099
2725
3528
6533
2574
5400
3433
6882
4010
2050
5511
2345
2479
2453
5359
4029
6787
2487
2094
4756
3330
6054
4225
2563
2569
6167
2015
2159
5154
3276
6362
4000
7078
2567
2511
2234
5165
2181
3582
2490
3798
6911
2179
2519
5903
3447
4177
3363
2599
2664
5789
2482
5886
1121
2581
3793
6469
3836
2154
2171
4385
8071
2059
2543
2716
4022
6881
2070
3026
2855
2299
3889
2502
2477
5556
3914
6671
1509
1951
2560
3723
2221
2109
2162
2465
2667
2138
5235
2595
2154
2535
4060
6858
2211
5409
1130
3532
7224
3527
2123
2283
5402
2536
5780
3491
3749
3962
2426
3509
2129
4962
2043
2839
5568
2378
5743
2731
5491
2641
3958
7120
3576
2519
5246
1130
2561
5686
2133
3705
2298
2155
3981
7019
2278
5040
2336
5808
2180
4126
3164
2221
4145
3783
1990
2645
5616
1490
4586
1091
2186
2081
3796
2384
6153
2588
2289
5850
2407
5574
3439
6336
2807
2004
3640
2642
5527
4152
7253
1379
4638
4042
6730
3778
2335
5400
2582
5475
2398
2090
2873
3494
3704
2183
3701
2049
3598
2143
2869
6252
2403
2804
3501
7149
4373
7122
2134
3861
2148
5640
1101
1
4107
2039
6078
2131
5530
1100
4187
2782
2419
2386
5533
3551
2143
5602
2278
3678
6489
1099
2127
2950
2099
3979
2834
5604
3909
6654
2226
2465
4078
6899
3665
2991
2347
2166
6557
9929
2260
6135
2658
3309
6157
1288
3951
3607
3898
2114
5710
2147
2692
6266
3035
2107
5016
2631
5407
1249
3725
6498
2850
2262
2065
5069
2066
2382
4070
2031
2224
2414
5686
3770
6677
1103
3558
2499
5585
3392
2531
2679
2422
5541
3134
6040
1147
2311
3836
6946
3983
2536
6241
2092
2322
2553
5755
2446
5768
3493
3999
2922
4092
3263
2253
5350
2607
3380
2811
5689
2553
2450
5503
1240
4456
3894
2044
2124
2228
5439
3135
6142
2193
2430
2130
4547
7374
3717
4615
7448
2544
2518
3515
2761
4075
2118
4994
2532
2421
5583
2992
4010
6998
2569
3626
7106
1521
2151
2029
3320
3831
6672
1483
2461
5779
2589
3656
6975
2658
2513
2385
3763
7006
2477
3761
7249
2486
2395
5806
2660
3560
2526
5350
3597
6440
1515
2656
5457
2700
2102
2404
4089
2132
5686
1369
5190
4003
2223
5070
1382
2488
5329
3655
2106
3209
7970
4241
3075
2208
5590
1437
3690
7804
2475
3446
6799
3075
2865
6048
3707
2669
2312
5566
2657
5398
3001
2127
2485
2596
6175
2396
2124
2115
2240
5343
2817
3826
6646
3118
6059
2662
1990
2344
3877
7071
3635
2388
2040
2465
2152
3594
2482
2239
2425
2131
2545
6032
2143
3697
2031
2400
2321
5112
2208
2362
4276
7130
2134
5352
3698
2083
2744
2518
4008
2457
5675
2507
2712
5783
2500
4342
7484
1467
2547
5628
2485
2808
2359
5805
4288
3701
6520
2718
3552
6428
4422
7415
3988
2713
6140
2079
4692
3911
7044
2398
2519
2506
2793
5584
2554
2366
2555
2573
2437
2544
5783
2136
2364
5639
3473
6565
2355
2476
2397
3939
9127
3538
7179
2580
2170
2497
2180
2492
3637
6700
2456
2611
2421
3624
3331
2331
2750
2097
2544
2553
6067
2649
2276
5407
2140
3891
2050
5126
2373
2246
4256
7933
2703
4290
7100
2210
5761
3255
6422
4745
8178
1533
3251
2066
2402
2049
4793
1067
2057
4042
2006
5190
2476
2092
5145
1191
5732
8792
3015
2403
6171
2210
4061
2897
6499
2757
2089
5509
3925
7083
2088
3776
3898
2490
2186
4503
7853
1547
2342
5390
1151
2107
2358
3610
3138
5919
2052
2067
5118
2710
6288
2075
2539
5702
2963
3865
2199
2562
2869
2223
5627
2805
5690
2698
2029
2020
2423
5525
2456
3830
2079
3440
2059
2596
3192
2450
2494
5819
3567
2238
2432
2352
2146
3832
6719
2531
2053
2430
4170
7672
4030
7229
2490
2123
2291
2226
3679
6728
2702
3019
6034
2167
2661
2267
2126
2608
5584
2370
2197
2391
5434
4028
2149
3974
7164
3786
2350
5511
2312
2436
2406
2301
4000
2366
4077
6869
1120
2096
5377
3584
2447
6030
1075
2395
2496
2238
3643
7081
2370
3560
7475
2466
4051
7565
1127
2429
2443
4233
3258
6192
2143
2538
2057
2326
4019
7504
2973
6442
2622
5865
3250
6214
3177
6168
2862
4371
2463
5571
4018
6948
1327
2289
4219
4076
7184
1582
4649
2632
2736
6715
3081
7049
1474
3111
5831
2765
6184
2509
1981
4733
3878
7989
1250
4556
2275
3946
2253
2163
2360
2886
2059
5184
2608
6121
2054
2517
2088
2383
5543
2387
3510
2331
2145
2560
3861
3574
6732
2345
2492
2384
2010
3587
2322
2568
2193
2513
2598
2022
4877
3577
2424
5716
2542
2355
2355
2328
3511
2366
3642
3785
3098
2097
2272
5678
2380
5558
4123
2145
2565
2080
2231
5492
3211
6047
1426
4073
2592
3419
6610
2407
5763
2036
2726
3710
2373
2327
6111
1583
2766
6082
2588
2046
4780
3180
2568
5735
1273
3585
6943
4224
2303
5575
4013
7309
3598
4068
7101
2131
5419
3106
2142
4986
2482
2143
4195
7667
2151
2421
6519
2709
6140
2154
3901
7086
2168
3501
2326
5612
2845
2757
2261
2351
3966
6777
3396
3840
6613
2541
2695
5857
2507
5657
2860
2086
3736
3734
2751
5999
2289
5927
2560
2526
3281
2597
6001
2419
5202
3765
3930
3089
3935
2936
5845
1122
2135
2778
3656
7035
2996
5824
3252
4101
6938
2115
5158
3348
2095
2388
3658
2370
5155
2225
6176
3771
6524
1562
4395
2471
5608
3672
2223
5501
3177
3678
2558
2508
6190
3747
2437
5659
2285
5507
1167
2515
5494
3829
2185
2718
5589
2181
3886
3573
2124
3092
5961
2061
2394
2610
6107
3618
2334
6286
1448
2389
2041
4832
2101
2568
2406
2531
3066
6043
2448
2308
3486
2200
5405
3648
4309
2032
2181
2424
2047
5130
2162
5616
2132
2514
2861
2578
5797
3852
2396
4002
3488
2412
2328
2030
2381
2173
3852
2566
5422
2044
2313
5260
1120
3725
2631
3535
2491
3884
7059
2163
2551
2241
5075
1656
2486
5962
2813
3804
2113
2495
5365
3795
2443
5368
3207
6506
2436
2285
5627
3584
2348
3971
2648
2139
2640
5784
2550
2385
2346
5133
3571
2231
2425
5725
2078
3710
6569
2002
3682
4116
2479
2964
6006
2088
2526
2038
3353
3617
4253
7141
1403
4426
2428
2405
6062
2393
5497
4685
8029
1746
2083
2400
5812
2459
2533
2235
2474
2029
2355
5156
2593
6203
4177
2143
5499
3829
6854
2603
5838
6107
9069
3464
2446
2962
4582
7932
3834
6768
2597
5391
2233
5754
2350
2089
2477
2259
3822
4237
7862
3905
2021
3153
7002
3611
2855
2069
2177
5821
1141
2495
2118
3477
6411
2422
2382
5614
2310
2080
2172
2542
2516
2507
2308
3910
2181
2242
3905
6726
1564
4541
2270
6167
2428
5723
2648
2494
5390
4133
3583
3700
2175
5131
3838
7582
2331
2598
3589
6832
4420
7362
2141
4986
3671
6798
2642
6164
3517
3171
3754
3698
3070
6200
3906
2979
6056
2522
4867
2320
2523
6092
3530
2021
5904
2373
2490
2773
5961
2215
4413
3762
4598
3086
2741
6144
1132
4311
7700
3005
6304
2216
2580
3249
6400
2796
2750
6391
3040
2050
5430
2587
2093
4957
1327
4337
4098
7764
1499
4505
7262
2139
3101
5964
2149
2451
3900
2463
2379
2677
2101
2138
6198
2632
3505
2490
2728
6553
1139
2879
3823
7582
1243
2382
5627
4032
7023
2068
2536
3449
2029
2645
5468
2084
3683
4659
7529
2103
2146
5302
2074
2238
5571
2646
3998
6782
4248
4347
7455
3231
6103
3943
6746
4050
7213
1474
3867
3451
6403
3457
6238
2611
3167
2188
2654
2128
5364
2513
2000
2645
5814
2137
4978
2749
2411
2542
4276
7076
2177
2319
5669
3733
2385
5701
4103
2084
2177
3628
2799
2048
2043
4851
2534
6302
4580
2056
3962
2432
5158
2527
6130
2120
2506
4513
2012
3437
2143
4917
2363
5792
2148
5281
4215
2205
2724
3038
2114
2718
2397
2136
5401
2619
3916
2055
2464
3982
