9397
12538
3225
3779
6712
10563
4760
8654
12472
4211
8288
2922
2725
3239
5949
2763
6491
2090
4933
3101
3096
2256
5186
3793
4120
7361
3878
6615
4569
2064
4799
2581
6040
2643
2462
4286
3757
5062
2203
4483
8016
12155
15961
1272
3177
5908
3907
3403
6447
11120
2279
3245
6357
11359
2040
4866
2445
2122
3832
2114
2943
2265
2323
5377
2777
2234
4156
7272
11004
3237
2350
2562
6000
3565
2044
3888
7040
4208
2421
2339
5057
3570
2216
2504
6491
2583
2791
2684
5388
2685
4320
4637
7875
4446
4805
9304
3145
6483
3637
4362
9584
2290
3429
2152
5158
2800
2434
3107
2487
3611
3694
7103
2046
2460
2719
2021
3112
6087
2702
2341
3530
3018
5322
8444
3348
6799
2213
2568
4036
6900
3289
2460
2372
2005
3476
2499
2135
2564
2720
2175
2556
5674
2317
3979
7086
2515
5908
2097
2572
6498
3420
2657
7056
2320
2203
3895
6697
4044
2614
3454
3518
3566
6813
2851
2427
5163
3309
2144
2448
4406
7126
2168
2675
2171
3516
7603
11855
2129
4656
7666
2486
4535
3550
4721
2196
5072
5334
8219
11946
2539
6106
4107
3649
6454
3037
2197
4552
2546
2441
4459
2263
4201
7327
11841
4335
7680
4047
6982
2810
4229
3181
3323
6502
3055
4064
6778
10889
15921
2544
3172
3019
5842
2600
2132
3550
4625
3707
4442
3329
2344
6155
3587
2433
6137
2668
6697
12961
2307
6201
4664
3666
4269
7528
2268
2307
2356
5177
3071
3573
2902
2229
5613
10235
3533
2092
5010
8090
4054
3583
2412
3666
2589
2542
5811
2167
2543
5625
2921
5742
2223
2478
3606
6377
3601
3973
7573
2491
3775
3184
6501
4239
2022
4008
7963
3880
6654
4837
7678
2299
2164
3953
2965
2189
5375
9636
4132
7449
2366
5829
2159
5459
3830
6714
4314
3757
4232
7879
2158
2180
2422
4041
3300
4135
3681
7908
2645
4803
2144
2471
4249
7556
2547
6695
10827
3598
7041
3126
2445
5817
2099
4766
7567
12463
16699
2174
5355
9544
2486
5455
3463
4444
7239
2648
4041
2471
2108
3040
3820
4956
7923
3854
7571
2475
2499
2627
3545
6763
2645
3601
6350
3619
6657
2171
5001
3919
8410
3936
2620
3954
2386
4940
7680
2723
6301
3158
6265
4328
2170
5351
3142
3880
2495
6507
2185
4711
2163
3083
3725
4422
4934
7864
2184
5132
9826
3186
6064
2395
3305
4370
7389
3856
6586
10920
15794
2290
2156
2498
5719
3864
3689
4298
2244
4131
2067
4848
8745
4117
2389
5651
2197
2149
2318
2476
2550
2318
2112
2431
4463
2182
2274
4545
8421
2617
2832
2078
3702
3341
3302
6136
2371
5692
2186
6618
11110
2527
6247
3774
2293
5852
3658
4343
7409
2202
2568
3128
6136
2818
2518
2065
3034
2178
2987
2344
3720
2103
3271
6004
2296
3050
2018
2494
3305
3969
2181
5943
3639
2158
2678
3413
3653
6932
2449
2362
5882
2007
4193
7715
2090
4266
7799
11692
3671
7869
2290
5106
4487
2555
2879
6879
2519
2201
2530
4147
7173
3409
3135
5912
2516
2518
3593
2431
2327
5010
2055
3325
7440
3880
2569
2065
2215
2346
6633
2214
4510
2133
3685
2312
5067
9036
13323
2150
2396
5956
2138
3871
4103
3727
2195
2218
2464
6374
3369
2437
6266
3288
4244
7359
11002
3967
2144
5396
9501
14693
2707
3215
3258
3416
6575
10450
16184
2553
6178
11476
3129
6055
3492
3130
3393
2018
2371
4034
7122
2116
2044
2294
2031
5333
3040
2197
2107
3483
3579
4379
2093
3240
6140
2455
2114
4593
7662
3565
2856
6178
3978
4726
2902
2589
3795
6626
2473
5902
2092
4873
4479
2137
3497
2138
2102
5391
3376
6189
4250
3756
6610
2277
2267
2128
5264
9073
3268
2024
3198
2522
3783
7357
11228
2339
4168
6983
4155
3609
6307
3667
6939
2096
3616
7410
3149
5853
3630
6729
2871
3835
6564
2377
3036
2134
5311
3488
2191
3591
7108
2055
3639
6620
2558
2174
2859
2562
5306
2348
3485
2043
4303
4217
2617
6280
10220
4095
2272
5566
9464
4140
3575
6720
11334
1970
2578
2806
2384
4030
2202
5273
2160
6379
3937
6748
2969
3306
4210
3486
6541
4047
3458
2323
2899
5786
3704
6528
2514
4233
3157
2757
5548
4315
2304
5125
4296
2285
2085
3048
2119
2347
5683
2461
2430
3850
3928
6849
4182
2576
2624
6220
10006
3868
5554
9369
14059
2656
2288
3254
6135
3353
4261
7018
2547
2838
2287
3637
2101
2439
2401
2189
2079
2130
5798
2135
3857
7873
11981
2473
6138
2537
2474
3753
2117
3710
4937
7658
4360
7429
3909
7731
2189
4124
2189
2189
4076
1992
4908
2138
2104
5028
2426
4419
7236
3710
7058
2067
4037
8140
2210
3539
2376
2540
2233
3451
2517
3114
2521
3856
7284
11856
3909
7387
2141
3754
6663
3280
6768
4497
2152
5345
9486
3977
6745
2532
5775
3150
4127
7031
3982
4324
2190
4990
6941
2446
5523
2379
2379
3001
2405
5376
3613
2368
5445
3271
2135
3906
2348
2388
5530
3133
2201
2139
2578
5639
3735
2161
2690
2038
3495
2132
2216
3856
2340
2829
2357
3658
7271
11411
15639
2326
6199
3704
7016
3896
5007
8717
3643
6379
2969
2521
2155
2301
3738
3650
2443
5650
4991
7876
2397
4101
6811
2483
5331
3516
6681
10729
3714
4447
5377
9286
2059
2310
3578
6725
3542
3372
3949
4676
2159
2173
3366
2303
5194
4454
7354
2522
3124
6095
2176
2600
2070
2376
2448
3528
6636
10418
2498
2111
3999
7112
3616
2069
3773
6818
11308
4349
2661
2755
3093
2587
3062
2131
5222
3152
6314
3528
7119
2136
2320
2878
2060
2199
5100
3356
2548
2217
2093
2104
2875
2139
2621
3138
4272
2543
2272
2431
3994
2178
2234
4754
7478
2115
2966
6413
2151
4970
3848
2315
4013
7506
11437
4795
3462
6261
3595
3649
6635
3252
5936
3872
7373
11722
3965
2843
5924
2504
4682
3727
7432
4174
2113
5382
9917
2167
5075
2252
2432
3594
4441
2442
4303
3558
6358
2522
3669
2396
6732
3577
2352
6154
2181
4003
3356
6176
4011
7661
3968
7346
12276
16180
2680
6057
10452
2182
5575
3892
2895
3395
3617
3366
3515
7244
2515
4109
7287
3990
7133
2056
2144
5036
4038
7441
3549
2504
2426
3075
6159
3642
6399
3481
1985
4752
5701
10325
4752
2727
4389
2789
6287
4197
7455
3360
2654
2514
2407
4147
1995
2516
4349
2214
5292
3227
6246
3391
2952
2024
2192
5079
3638
6859
2965
5977
3813
2611
6329
2511
3504
3588
2143
2123
3916
2606
2269
2689
2642
2141
2380
5831
4058
7713
4303
2546
3779
2367
2033
4946
3307
3475
7023
10871
15941
3019
2052
2325
5349
2139
4080
2522
2918
6444
2078
4459
7675
2504
4275
2226
5106
9181
2251
3715
6769
11998
4539
4470
3130
6204
4029
7065
2523
6113
2022
2235
5917
2087
2254
5361
2123
2237
2395
4086
3598
2592
3472
4354
2413
5493
2455
2059
2295
5250
4004
3937
4921
2157
3669
7366
2579
5901
4413
3566
6851
3524
6550
2861
2064
3860
2486
5345
3687
7082
2140
5187
9382
2025
2025
4270
2643
4055
2332
2208
2428
6306
2542
2161
5468
3532
2485
2607
6226
3708
2097
2382
2426
6386
3815
6699
3302
2218
4798
2313
3732
7006
12361
17686
2096
7745
3434
3938
3739
3635
2362
2486
6143
3149
6000
10490
14623
3671
3894
2173
1997
3860
6857
2964
6548
10733
2563
3809
2372
5536
4060
2509
2298
3884
6811
2578
2539
2682
6449
10369
2406
3408
3558
3991
2063
2552
5858
2089
2493
5295
3064
5945
3771
3398
3818
6540
3822
3522
4493
7799
3694
3309
2466
5345
9144
2057
5204
2286
3147
2153
5250
3677
2083
5913
10081
14251
4943
7795
11677
4486
4024
3928
3551
2323
3279
3443
2369
5531
9986
2188
2556
5873
1994
3484
3710
2398
2920
2149
3575
5007
8016
12645
3517
3635
6504
10639
15785
4189
8032
2149
5021
4729
3172
4201
3100
2271
2701
2079
4928
9251
2534
3414
6441
3289
2351
2148
4035
2256
2358
6456
3403
2585
2013
5502
3678
7796
3601
6805
12088
16209
2227
6135
2092
2257
2995
3413
3993
2200
3904
4683
2217
3775
4561
7855
11959
18834
2865
6039
10016
2096
2447
3967
2142
5880
3380
6100
2087
3833
4140
2069
2603
1999
4875
8665
4266
2443
5860
9809
2417
3987
3374
3971
5176
3887
6718
3023
6143
10039
4953
7812
3994
3636
3699
3190
3426
6488
2865
2364
5167
9723
2127
2302
6197
3571
2088
3868
7280
2409
3207
6459
4684
2390
5591
3669
2196
4674
7967
4018
7718
2487
5640
10489
3261
4026
3184
6000
2223
2694
3878
2863
2360
5563
4610
2312
5113
9432
14336
2594
2203
5884
2505
2209
2484
3549
3705
3897
2434
3896
2069
5278
2175
2122
2180
2028
2348
2498
2178
3680
6873
3317
3714
6973
12002
16093
2389
3434
6236
10078
15376
4197
4160
2142
5344
4417
3508
6372
4176
3656
7111
2843
2389
2660
5665
2091
4079
2950
6093
2464
3095
2690
2439
4398
4157
2314
2221
5509
4371
2290
5185
2484
3378
2465
5790
12223
17018
5640
4191
7034
3700
3989
2529
2093
2109
2988
6140
4162
9107
13638
17779
3236
3337
6697
4839
3419
2369
6338
4249
3453
6705
3655
4304
7228
11300
16116
3725
2404
2902
6408
3809
3514
2443
2434
4835
2484
5840
2242
2462
5725
2616
5950
3565
4027
6835
4181
2282
4152
7463
2036
2383
2377
5840
2410
2431
3819
4121
3451
4100
4443
2018
4983
3194
2135
5036
9608
2053
2675
5586
3470
2095
2689
2148
2473
3521
6300
10612
2160
3803
6700
3927
3659
3943
7205
2540
2538
6017
10100
2053
3601
3890
4557
3673
2147
6271
2344
5403
3218
6216
2474
4802
2319
4873
1978
2493
2703
2065
4879
4683
2447
2571
5364
3660
2411
5501
3061
2470
2766
5669
9875
3511
7046
10861
2328
4545
4152
2664
2620
2505
2682
5859
2448
7828
4023
3956
3408
7281
2249
3517
6331
11197
3931
4717
2257
2459
4429
2520
2493
2844
5853
4202
8072
12470
2254
3037
3512
7195
2853
3700
2097
5819
4090
7237
4279
2372
3709
2206
2362
2972
2128
2190
5006
9712
3450
2291
2271
2065
3994
8039
3673
4532
2245
5644
9846
4089
6916
11343
16249
3439
4296
2410
2414
2652
2550
5478
2979
6161
2501
2516
4425
7544
3894
2425
4324
7148
2083
3073
2781
5981
3003
3971
3409
3677
2413
4857
7649
11598
2912
6266
10207
2284
2165
2200
4032
2087
2184
2272
2126
3743
6728
4160
2192
2529
5354
2448
6260
2577
3638
6617
2635
3131
2525
3920
3616
3403
4725
3564
6341
2583
2171
5279
3412
2524
3831
2111
5075
4000
2147
2497
5679
2465
2122
3961
3876
3719
2030
4969
2646
4561
2468
5502
10509
3400
2034
3143
6208
10273
4301
2681
2146
5814
3705
3760
9418
14062
5499
2888
5876
3377
2578
4750
3635
4852
8276
3665
3167
6216
10150
14455
2368
2425
4199
1984
2160
2348
6204
10010
14771
3343
6116
9983
4465
2628
3686
3765
3552
2888
6084
2511
2371
5918
2487
2099
3322
3767
3776
2679
5837
2943
2466
5644
3318
3666
2167
2519
2358
4256
2208
2404
3197
3728
2030
4908
2159
2468
3233
2020
3618
2484
2701
2111
6002
10505
2172
3073
2402
5216
4943
2450
2279
2673
3642
3777
2419
3888
4733
7931
2393
3947
7193
2443
6661
3667
6516
2459
5489
4427
2050
3906
7174
11566
2301
2318
5916
2591
2048
2660
3671
4427
2145
5568
2201
2069
2032
3974
1990
2216
5120
3623
3745
4913
8001
12257
3097
2207
5329
9597
3480
2124
2309
3891
2972
2038
2101
3013
6119
2582
4329
2062
3590
2256
5345
2446
2409
2501
5447
2754
2123
3268
7337
11171
2178
4699
3935
4432
3577
6408
12883
3622
2719
7550
12319
2055
2818
2115
2444
7348
2179
4019
2051
3520
4642
2184
5075
2566
2268
2496
5143
4114
7413
3669
2368
5689
10314
3934
6861
3870
3442
4799
7807
11953
3274
2280
2076
2889
3780
2330
2149
5482
9683
