3
8598
2339
2235
2120
2858
2352
2352
5466
2536
2707
5344
2156
2525
3101
2309
5505
3418
3550
2066
5699
2189
3939
3715
6485
10205
4197
2198
2148
3170
2206
2343
2946
6075
3856
2528
2072
3532
6511
2201
3440
6212
2115
3335
6157
2188
3261
6073
2476
4225
6907
2626
3218
5967
2771
3276
6061
2523
3379
6120
2375
3179
6008
2106
3267
5963
3506
2327
5247
3791
2265
5549
2130
3565
6875
3224
2233
5286
2149
5192
3629
3417
6286
10039
3153
3105
5774
2228
3537
6275
2123
3179
5892
2509
3204
6046
9809
3212
3205
6244
3359
2113
4960
2071
2063
2178
3612
6396
3158
2117
4898
3145
2564
6037
3184
3113
6388
2292
5775
2256
3974
2479
2082
2271
5174
2055
3112
3637
6467
2224
5336
4698
4944
8859
14571
5
2428
5831
3247
6972
2485
3521
6294
10336
2185
3947
3320
2128
3529
2515
2485
2300
2112
2114
4391
8415
2150
2176
6113
2197
2758
4195
3787
7579
2434
2155
5145
9727
2133
3331
3135
5971
2123
3411
6234
9902
2064
3171
2192
2040
2053
2112
2365
2024
3995
6716
4051
2199
5100
9773
3745
4116
7571
2150
2135
2469
2099
2046
3963
6702
10703
4068
2323
2168
2926
2243
1976
3052
3533
2362
2819
2503
3948
7088
11170
15434
3518
3762
4407
7833
11529
15367
3093
3333
2522
2898
3790
6999
11104
3616
1980
3287
6508
3353
4013
4572
7681
13096
17194
3629
2229
2078
2617
2438
3720
6548
3788
2639
5819
2297
3560
6473
2142
3597
6770
11574
2869
4342
3526
6277
10524
3357
3819
6708
2506
2557
4207
7000
11292
2988
5318
8648
2505
5234
2094
4264
4173
2449
2068
4929
8771
4306
3419
3466
7291
10998
16148
4631
4060
8103
2552
4736
9994
13789
2562
3442
2402
2439
2852
3507
2088
5352
2335
2458
2209
2082
2391
2510
3425
3256
6413
11271
3932
2792
5743
2444
3787
3162
5872
2471
2466
5178
3667
2036
4811
2299
2901
2491
2582
5924
3493
2449
2420
3281
6107
10668
3345
3898
3616
2381
2580
5919
9679
13981
4447
3193
6193
2593
2551
5724
5320
3408
3163
6175
2540
2017
4823
3851
2177
5275
9510
2792
3817
2643
2487
2244
2263
2354
2296
2410
2291
2182
4994
3664
3416
6232
11407
2135
4103
3216
6298
2151
6078
3515
5261
8363
2494
4412
7323
2491
4274
7362
2255
2639
2204
3561
2113
2140
4443
2117
2580
5626
10712
14822
3721
2123
3267
6363
2055
4997
3355
2084
2486
5599
2859
3381
2545
3267
3499
6333
11018
3981
3076
6072
10255
3998
2033
3420
8809
3876
3196
6985
12462
1464
4564
2138
2826
2585
2363
5182
2086
3679
3312
2501
3691
2354
3702
6836
2461
3792
2575
6177
2462
5264
2655
4186
3955
7092
3755
2678
2048
2527
5822
10357
3592
3000
3979
7121
11445
3690
2364
2971
2199
3035
2070
2417
2337
2390
3995
2255
5147
4056
2165
4994
9141
4593
3730
6509
2962
5984
4037
2523
2202
3797
7392
11141
3837
2220
5032
3823
3454
3685
6734
2221
2352
3263
7430
11484
3889
2185
2993
2654
2535
2366
5615
10252
3433
2909
6310
3488
2324
2237
3695
6653
2016
3757
6940
11883
2409
3932
2469
3833
6660
2356
3866
6759
11285
3401
2554
2189
5314
4037
3301
6084
3582
2156
5194
2168
3412
2338
2522
6243
2531
2212
5767
2387
4077
2307
2033
4182
7791
3350
2245
3415
2062
4880
2114
2089
4660
7852
11623
3757
2057
4881
8847
2718
3209
4147
8006
3317
2243
5866
2708
2373
3849
6764
2248
3509
2274
5128
10610
3556
4985
10116
14258
8219
2151
5470
2374
2937
3947
6664
2513
3716
6539
10928
2987
2329
2907
3684
2290
5423
5214
2325
2615
2030
5255
2927
3263
6178
2248
3553
6637
2095
2757
3642
6845
2040
3348
6438
3452
2108
4839
7719
11440
15463
3566
1986
3732
6985
2681
5686
3142
2529
2387
3621
2649
5424
10136
4020
3488
7216
2558
2348
6045
3634
2090
2331
3832
7076
3345
2265
5060
9149
3586
2526
3770
2173
5101
9320
3512
2205
3249
3178
3588
6799
2109
2481
5789
10520
3929
3286
6137
2214
4464
2331
4033
2211
2778
2183
0
2267
4025
7228
2020
5166
4367
4117
7521
2816
3617
6850
2921
4056
6843
4008
2226
5365
2583
2214
2248
2455
5612
2684
4482
2279
3475
3351
6218
10363
14928
3590
3756
7358
3594
2555
6134
3892
2675
6200
2161
3748
2066
4003
6982
2553
2555
5329
3764
1973
4739
2789
2092
2245
3401
3203
2062
2707
2446
2241
4129
7822
12800
3300
3749
5022
8853
2198
2842
3575
3830
7274
10966
15195
3656
3261
6737
11006
4102
3901
7679
11735
3460
2893
2315
2259
2512
2054
2586
3692
6670
2451
2087
2223
5360
4324
2504
2885
2061
2251
3140
3238
6037
10115
2895
2844
2440
3835
3612
7417
2191
3754
7208
2344
2155
5372
3556
2561
6281
2635
3625
4200
6953
11059
4944
3174
6144
10498
3273
4047
7916
2073
4939
5009
2168
4975
2654
4079
2783
5761
4289
2078
3819
6764
11625
4115
2718
2060
4040
2934
4302
7093
11500
16141
2139
4589
2150
2684
6446
3833
3870
7563
2170
2605
2045
2500
2524
3390
2796
2786
5868
2437
4102
7202
11088
2626
3749
3433
6509
2118
2555
3186
2198
2088
3213
2280
5304
5602
4406
8778
2651
4975
3634
6986
12471
16880
5337
3774
6697
2701
3320
6060
2379
3317
4036
8414
12419
16943
4929
2055
2490
3813
6634
3007
6416
3898
4305
7176
2374
5915
3504
3142
7107
2009
3161
4213
6899
2040
2331
5739
2529
2673
5208
8759
2720
2074
6305
12637
2703
3733
2670
2247
2160
5310
3154
2557
3165
3576
2162
4476
8217
7326
2291
3513
6722
11427
2226
3792
2125
3944
4692
2203
4963
9647
14391
2491
2512
3766
3356
6766
2050
5002
4497
3678
2492
2623
5528
9654
4597
3908
6713
12466
3751
4459
2557
2221
5609
2180
2253
2730
6043
3875
2563
3775
6823
3523
3347
6320
10467
3671
4358
9312
13915
5511
4383
7945
2970
2481
2940
2920
2098
3698
6805
5144
2798
5651
5179
2135
5275
2330
5675
2533
2318
3590
2569
3827
6966
11495
3708
4158
7545
2163
3241
3111
6204
10074
4502
3821
7026
2570
5810
3958
3463
6699
11476
3943
3507
6776
11911
3888
3125
2115
4037
8188
12270
4105
2483
5625
2436
3876
3010
2849
2178
3838
2794
4202
7049
11688
4115
2582
2654
2267
5538
10474
2304
4622
3997
2329
3103
6444
10519
4882
2209
3936
4255
7388
11259
3925
2402
5194
2561
5843
4252
3701
6869
2963
3877
7510
4137
2161
2582
2173
5256
2106
2619
2148
2465
3372
6166
2167
3672
2202
5057
3912
2151
3289
2455
5325
4697
2360
2562
2490
2387
2177
2808
2131
5563
10388
2325
2885
2644
3838
4654
8002
2850
5849
4096
2593
2719
5556
2283
2452
3933
2393
2535
2336
2862
3202
6478
10929
4120
2640
6047
3534
2467
2529
2580
3543
3773
7265
3627
2555
3298
3548
6303
2984
2457
3256
2572
2142
2553
3690
2724
2654
5564
9770
4669
3440
3611
7230
2230
2503
6348
3763
2418
6389
11157
2900
3010
2057
3928
2647
4216
2949
2052
2500
5360
10665
2171
3568
3384
6423
10597
2413
4046
5349
8663
12858
3124
3738
3985
7484
2525
2723
6328
3901
2187
3623
6774
11226
3416
2919
2757
2169
5504
4681
2255
2220
2879
2752
4258
7589
11762
2194
2519
3816
2270
2260
2102
4944
4718
4011
6777
11527
2197
3602
3522
2190
3127
3744
6556
2916
2450
5621
2931
6023
2245
4495
3194
6660
4514
2825
2529
2602
5816
2391
4054
7021
11714
2539
3513
4433
7729
11969
3896
2262
5366
4630
3574
6866
2556
2084
4921
4736
2430
2476
2976
2052
2213
4055
7061
11350
4369
2295
2341
5555
3934
3842
7442
2089
2164
2335
5124
2536
4519
4065
4575
2401
5220
3109
2550
5357
2383
3643
3230
6401
11605
15650
3812
4001
6805
10941
2173
2492
4888
3625
6470
2597
2041
2162
2898
3392
6595
4491
2050
2354
2552
5447
9538
2794
2238
3648
3802
6942
11369
5514
4233
8621
2531
4533
3488
7920
2728
2604
5540
2133
4961
2196
2413
2167
3533
2491
3290
6887
2133
3315
6230
10731
2016
2311
3352
3548
6436
2203
5489
2122
2855
2080
3681
2487
2568
2455
6326
10408
2459
3093
5598
2804
3679
6886
12051
3577
3281
7315
11444
3621
3666
6627
2219
3610
6363
2432
2737
3989
6808
11847
3788
2736
3565
6720
2884
2093
4035
3318
1999
4475
8042
2092
2529
7127
11777
3776
3681
6911
2608
3630
6942
2709
3933
6718
2494
5916
3755
3887
7257
11045
4154
4062
3631
7279
2440
2461
4609
7428
2057
3240
6206
2466
2502
3627
6744
11785
3489
3922
7202
2070
3582
2305
5309
4162
2271
2062
2612
6317
10090
2071
4358
2565
2490
6037
2270
3951
3942
2151
2971
3389
6436
11128
15744
4063
2967
3729
6493
11230
3406
3951
4003
6810
2211
2486
6086
9987
3796
2440
2182
4058
2434
5823
4292
2097
5537
2088
2062
3709
7454
3861
3245
6664
10601
4278
2096
2115
2474
2241
5388
2550
2591
4054
3544
2165
4343
3384
2057
3074
6294
2509
2419
5646
3550
2388
2472
6145
4419
5578
9974
3059
3226
4206
7789
3652
3333
4233
7482
2399
2961
6320
2480
4149
7232
2526
4050
7841
2491
4862
7744
3477
2744
6035
10132
3521
3826
2481
3636
3275
2648
6157
2410
2539
2403
2487
6770
13084
2177
4405
3394
7167
4282
2831
6019
10823
3606
3597
7419
3893
3119
6579
10458
4113
2197
2316
5456
3650
2500
3263
3849
6640
10492
3604
2516
3291
2259
3447
3903
6987
11070
3720
2444
5747
3640
2503
2560
2148
5004
9426
2733
2389
3529
2460
2875
6022
2182
2321
2531
2052
2200
2076
3504
3862
3243
2148
2174
3302
6638
2531
5323
2179
2831
4867
2115
3380
7981
11754
3985
2822
2515
2327
3304
2164
2740
6397
10598
4840
3368
6246
2924
2069
2765
3340
3747
6710
10581
3649
3164
6491
2391
2030
4853
3847
2293
3164
2434
2189
4388
7450
11639
4546
3332
6551
11645
2199
4043
3906
7102
11350
2279
3513
4246
7172
2438
2994
6604
4165
7644
2615
2959
4018
2065
5884
10067
3903
2896
5780
3753
4175
2099
2059
3586
6749
11412
16700
3915
2823
2102
2252
5460
3672
2304
4564
7443
2129
6964
3815
5706
10067
2415
2846
2687
3306
2637
2567
2323
2162
5281
3623
2063
4565
2327
2874
3393
3499
6832
11391
3563
2109
6130
2262
2166
3381
2095
5333
4868
2604
2171
3295
6164
9937
2771
3807
2280
5927
4019
4146
7238
2137
2172
2377
3978
6782
11437
2472
2166
3927
3745
3521
2587
2211
3262
6172
2080
2737
3474
6203
5122
2168
4987
8943
3741
4035
3788
7002
11281
15502
4090
3694
7082
3622
2510
6110
2377
2815
2279
3841
6977
2394
4099
4788
7808
2218
2682
2151
2084
5324
10280
3651
2186
3771
3982
7253
11568
15875
4956
2382
2228
3405
2422
2861
3937
6737
10822
3567
2525
2938
3389
2242
5533
10050
2233
2369
3999
3857
7188
2171
3514
3427
6450
2902
4358
7238
2211
5060
3495
3610
6789
11939
2166
4424
3574
6400
11139
2273
2245
2337
3514
2506
4644
2558
2069
6196
10226
3957
2430
3314
3562
2199
5105
9461
3564
4006
7001
2159
2362
5292
8722
2146
4351
8293
3020
3810
7015
3005
4255
7422
12601
3839
5086
7876
12089
4561
3761
6918
2431
2175
5406
3547
2827
6050
3655
2247
5641
3487
2771
2647
3573
6423
4516
2372
2662
2717
3871
7092
2395
2446
5659
3131
6105
2162
4357
3532
6403
2168
3706
3302
2220
5378
9553
3368
2587
6297
3837
2851
4013
2415
2529
6336
10614
2641
4028
2324
2093
5659
2887
2093
3914
2543
4365
2688
2478
6473
3686
2405
5896
10082
3570
2820
2168
4196
7725
11783
5099
3507
6312
3321
2166
2515
5035
8144
3072
2178
4908
2454
3184
4206
3876
2236
2507
5615
10597
4079
3418
6671
3455
2513
2593
2073
3307
2126
2367
3527
6475
2407
2694
3959
7438
2097
2611
